Engine/Binaries/Win64/CrashReportClient.exe	2020-06-23T06:53:40.929Z
Engine/Binaries/Win64/UE4Game.exe	2020-06-23T06:54:37.815Z
Engine/Extras/Redist/en-us/UE4PrereqSetup_x64.exe	2020-06-23T06:59:09.691Z
Engine/Binaries/ThirdParty/Oculus/OVRPlugin/OVRPlugin/Win64/OVRPlugin.dll	2020-06-23T06:52:39.244Z
Engine/Binaries/ThirdParty/DbgHelp/dbghelp.dll	2020-06-23T06:52:17.134Z
Engine/Binaries/ThirdParty/PhysX3/Win64/VS2015/PxFoundationPROFILE_x64.dll	2020-06-23T06:52:54.346Z
Engine/Binaries/ThirdParty/PhysX3/Win64/VS2015/PxPvdSDKPROFILE_x64.dll	2020-06-23T06:52:54.389Z
Engine/Binaries/ThirdParty/PhysX3/Win64/VS2015/PhysX3PROFILE_x64.dll	2020-06-23T06:52:53.459Z
Engine/Binaries/ThirdParty/PhysX3/Win64/VS2015/PhysX3CookingPROFILE_x64.dll	2020-06-23T06:52:53.385Z
Engine/Binaries/ThirdParty/PhysX3/Win64/VS2015/PhysX3CommonPROFILE_x64.dll	2020-06-23T06:52:52.890Z
Engine/Binaries/ThirdParty/PhysX3/Win64/VS2015/APEX_ClothingPROFILE_x64.dll	2020-06-23T06:52:48.810Z
Engine/Binaries/ThirdParty/PhysX3/Win64/VS2015/APEX_LegacyPROFILE_x64.dll	2020-06-23T06:52:50.455Z
Engine/Binaries/ThirdParty/PhysX3/Win64/VS2015/ApexFrameworkPROFILE_x64.dll	2020-06-23T06:52:51.327Z
Engine/Binaries/ThirdParty/PhysX3/Win64/VS2015/NvClothPROFILE_x64.dll	2020-06-23T06:52:52.580Z
Engine/Binaries/ThirdParty/Ogg/Win64/VS2015/libogg_64.dll	2020-06-23T06:52:39.353Z
Engine/Binaries/ThirdParty/Vorbis/Win64/VS2015/libvorbis_64.dll	2020-06-23T06:53:19.360Z
Engine/Binaries/ThirdParty/Vorbis/Win64/VS2015/libvorbisfile_64.dll	2020-06-23T06:53:19.370Z
Engine/Binaries/ThirdParty/NVIDIA/NVaftermath/Win64/GFSDK_Aftermath_Lib.x64.dll	2020-06-23T06:52:38.990Z
Engine/Binaries/ThirdParty/OpenVR/OpenVRv1_5_17/Win64/openvr_api.dll	2020-06-23T06:52:39.510Z
Engine/Binaries/ThirdParty/Windows/WinPixEventRuntime/x64/WinPixEventRuntime.dll	2020-06-23T06:53:19.685Z
Engine/Binaries/ThirdParty/Windows/XAudio2_9/x64/xaudio2_9redist.dll	2020-06-23T06:53:19.948Z
PeoplesArcticVR.exe	2020-07-18T08:26:45.089Z
